.print tran v(nodes) w(c1) w(c2) 
                             ^ ? no match
#Time       v(n1)      v(n2)      v(nv)      w(c1)     
 0.         0.         0.         0.         ??        
 10.u       0.         0.         0.         ??        
 0.001      0.         0.         0.         ??        
